<?xml version="1.0" encoding="UTF-8"?>
<CustomTab xmlns="http://soap.sforce.com/2006/04/metadata">
    <frameHeight>600</frameHeight>
    <hasSidebar>false</hasSidebar>
    <label>Agency Cases</label>
    <mobileReady>false</mobileReady>
    <motif>Custom16: Bank</motif>
    <url>https://fbnyc-community.force.com/FoodBankConnect/s/BenefitsCases</url>
    <urlEncodingKey>UTF-8</urlEncodingKey>
</CustomTab>
