<?xml version="1.0" encoding="UTF-8"?>
<CustomTab xmlns="http://soap.sforce.com/2006/04/metadata">
    <frameHeight>600</frameHeight>
    <hasSidebar>false</hasSidebar>
    <label>Resources</label>
    <mobileReady>false</mobileReady>
    <motif>Custom34: Insect</motif>
    <url>https://fbnyc-community.force.com/cookshop/s/Resources</url>
    <urlEncodingKey>UTF-8</urlEncodingKey>
</CustomTab>
