<?xml version="1.0" encoding="UTF-8"?>
<CustomTab xmlns="http://soap.sforce.com/2006/04/metadata">
    <description>Tab for CookShop Community displaying CookShop Calendar</description>
    <frameHeight>600</frameHeight>
    <hasSidebar>false</hasSidebar>
    <label>CookShop Calendar</label>
    <mobileReady>false</mobileReady>
    <motif>Custom6: Triangle</motif>
    <url>https://fbnyc-community.force.com/cookshop/s/Program%20Calendar</url>
    <urlEncodingKey>UTF-8</urlEncodingKey>
</CustomTab>
