<?xml version="1.0" encoding="UTF-8"?>
<CustomTab xmlns="http://soap.sforce.com/2006/04/metadata">
    <label>Help Information</label>
    <mobileReady>false</mobileReady>
    <motif>Custom72: Helicopter</motif>
    <page>FoodBankConnectHelp</page>
</CustomTab>
