<?xml version="1.0" encoding="UTF-8"?>
<CustomTab xmlns="http://soap.sforce.com/2006/04/metadata">
    <label>Import EPART</label>
    <mobileReady>false</mobileReady>
    <motif>Custom95: Stopwatch</motif>
    <page>ImportBenefitAssessment</page>
</CustomTab>
