<?xml version="1.0" encoding="UTF-8"?>
<CustomTab xmlns="http://soap.sforce.com/2006/04/metadata">
    <description>Tab for CookShop community, visible to only CookShop admins. Displays all LVFs for the enrolled school.</description>
    <frameHeight>600</frameHeight>
    <hasSidebar>false</hasSidebar>
    <label>My School&apos;s Verification Forms</label>
    <mobileReady>false</mobileReady>
    <motif>Custom69: Guitar</motif>
    <url>https://fbnyc-community.force.com/cookshop/s/My_Schools_Verification_Forms?lid={!User.Account_ID__c}</url>
    <urlEncodingKey>UTF-8</urlEncodingKey>
</CustomTab>
