<?xml version="1.0" encoding="UTF-8"?>
<CustomTab xmlns="http://soap.sforce.com/2006/04/metadata">
    <label>Send by E-Sign</label>
    <mobileReady>false</mobileReady>
    <motif>Custom23: Mail</motif>
    <page>TaxSendbyDocuSign</page>
</CustomTab>
