<?xml version="1.0" encoding="UTF-8"?>
<CustomTab xmlns="http://soap.sforce.com/2006/04/metadata">
    <description>VF tab to display custom list view of all Tax Cases assigned to a Virtual Tax Site waiting to be assigned to a Tax Preparer. To be used in the Tax Community.</description>
    <label>Site Tax Cases Awaiting Assignment</label>
    <mobileReady>false</mobileReady>
    <motif>Custom37: Bridge</motif>
    <page>SiteTaxes</page>
</CustomTab>
