<?xml version="1.0" encoding="UTF-8"?>
<CustomTab xmlns="http://soap.sforce.com/2006/04/metadata">
    <label>View Site Cases - Virtual Only</label>
    <mobileReady>false</mobileReady>
    <motif>Custom74: Hot Air Balloon</motif>
    <page>ViewVirtualCasesOnly</page>
</CustomTab>
