<?xml version="1.0" encoding="UTF-8"?>
<CustomTab xmlns="http://soap.sforce.com/2006/04/metadata">
    <label>View Assigned to Quality Review</label>
    <mobileReady>false</mobileReady>
    <motif>Custom38: Camera</motif>
    <page>ViewAssignedtoQualityReview</page>
</CustomTab>
